<svg width="2845" height="1559" viewBox="0 0 2845 1559" fill="none" xmlns="http://www.w3.org/2000/svg">
<path d="M1595.29 1145.9C1985.67 1796.1 3093.2 1704.05 2793.94 688.105C2578.14 -44.5053 1978.73 247.025 1571.94 288.105C774.717 368.615 859.057 -184.215 184.937 65.1047C-133.983 183.065 56.3574 540.045 56.3574 540.045C341.977 1259.03 1177.3 449.715 1595.29 1145.9V1145.9Z" fill="#F6F6F6"/>
</svg>
