<svg width="967" height="847" viewBox="0 0 967 847" fill="none" xmlns="http://www.w3.org/2000/svg">
<path d="M269.698 691.14C-66.3022 425.674 6.69786 42.1406 6.69786 42.1406C6.69786 42.1406 388.698 -107.859 707.698 158.141C1026.7 424.141 960.698 801.14 960.698 801.14C960.698 801.14 605.698 956.606 269.698 691.14Z" fill="#FFAD33" stroke-location="inside"/>
</svg>
